<?xml version="1.0" encoding="UTF-8" standalone="no"?>
<!-- Created with Inkscape (http://www.inkscape.org/) -->

<svg
   xmlns:dc="http://purl.org/dc/elements/1.1/"
   xmlns:cc="http://creativecommons.org/ns#"
   xmlns:rdf="http://www.w3.org/1999/02/22-rdf-syntax-ns#"
   xmlns:svg="http://www.w3.org/2000/svg"
   xmlns="http://www.w3.org/2000/svg"
   xmlns:sodipodi="http://sodipodi.sourceforge.net/DTD/sodipodi-0.dtd"
   xmlns:inkscape="http://www.inkscape.org/namespaces/inkscape"
   width="36.661732mm"
   height="23.816959mm"
   viewBox="0 0 36.661731 23.816959"
   version="1.1"
   id="svg42928"
   inkscape:version="0.92.4 (5da689c313, 2019-01-14)"
   sodipodi:docname="sidewalk_right.svg">
  <defs
     id="defs42922" />
  <sodipodi:namedview
     id="base"
     pagecolor="#ffffff"
     bordercolor="#666666"
     borderopacity="1.0"
     inkscape:pageopacity="0.0"
     inkscape:pageshadow="2"
     inkscape:zoom="1.4"
     inkscape:cx="-264.11125"
     inkscape:cy="98.371389"
     inkscape:document-units="mm"
     inkscape:current-layer="layer1"
     showgrid="false"
     fit-margin-top="0"
     fit-margin-left="0"
     fit-margin-right="0"
     fit-margin-bottom="0"
     inkscape:window-width="3840"
     inkscape:window-height="2050"
     inkscape:window-x="-12"
     inkscape:window-y="-12"
     inkscape:window-maximized="1" />
  <metadata
     id="metadata42925">
    <rdf:RDF>
      <cc:Work
         rdf:about="">
        <dc:format>image/svg+xml</dc:format>
        <dc:type
           rdf:resource="http://purl.org/dc/dcmitype/StillImage" />
        <dc:title />
      </cc:Work>
    </rdf:RDF>
  </metadata>
  <g
     inkscape:label="Calque 1"
     inkscape:groupmode="layer"
     id="layer1"
     transform="translate(-108.57318,-87.601211)">
    <path
       style="fill:#ab8907;fill-opacity:1;stroke:none;stroke-width:0.26458332px;stroke-linecap:butt;stroke-linejoin:miter;stroke-opacity:1"
       d="m 108.57318,100.83038 v -1.322916 l 18.33858,10.587786 18.32315,-10.587786 v 1.322916 l -18.32315,10.58779 z"
       id="path42957"
       inkscape:connector-curvature="0"
       sodipodi:nodetypes="ccccccc" />
    <path
       inkscape:connector-curvature="0"
       id="path42959"
       d="M 145.23491,99.507464 V 98.184545 L 126.91176,108.77233 108.57318,98.184545 v 1.322919 l 18.33858,10.587786 z"
       style="fill:#999b96;fill-opacity:1;stroke:none;stroke-width:0.26458332px;stroke-linecap:butt;stroke-linejoin:miter;stroke-opacity:1"
       sodipodi:nodetypes="ccccccc" />
    <path
       sodipodi:nodetypes="cccc"
       style="opacity:1;vector-effect:none;fill:#c6c6c6;fill-opacity:0.97999992;stroke:none;stroke-width:0.26458332px;stroke-linecap:butt;stroke-linejoin:miter;stroke-miterlimit:4;stroke-dasharray:none;stroke-dashoffset:0;stroke-opacity:1;paint-order:stroke markers fill"
       d="m 126.90404,87.601211 18.33087,10.583334 -18.33087,10.583335 c 0,-6.94531 0,-14.221356 0,-21.166669 z"
       id="path42961"
       inkscape:connector-curvature="0" />
    <path
       inkscape:connector-curvature="0"
       id="path42963"
       d="m 126.90404,87.601211 -18.33086,10.583334 18.33086,10.583335 V 90.437007 Z"
       style="opacity:1;vector-effect:none;fill:#707070;fill-opacity:0.98000004;stroke:none;stroke-width:0.26458332px;stroke-linecap:butt;stroke-linejoin:miter;stroke-miterlimit:4;stroke-dasharray:none;stroke-dashoffset:0;stroke-opacity:1;paint-order:stroke markers fill"
       sodipodi:nodetypes="ccccc" />
  </g>
</svg>
