[gd_scene load_steps=5 format=2]

[ext_resource path="res://assets/GUI/Poop.png" type="Texture" id=1]
[ext_resource path="res://assets/GUI/poop_fill.png" type="Texture" id=2]
[ext_resource path="res://GUI/Bar.tscn" type="PackedScene" id=3]
[ext_resource path="res://GUI/CacaBar.gd" type="Script" id=4]

[node name="Cacabar" instance=ExtResource( 3 )]
script = ExtResource( 4 )

[node name="Title" parent="Icon/Background" index="0"]
texture = ExtResource( 1 )

[node name="TextureProgress" parent="." index="1"]
value = 0.0
texture_progress = ExtResource( 2 )

[node name="Timer" type="Timer" parent="." index="2"]
autostart = true
